[{
  "id": 1,
  "fecha": "11/1/2019",
  "importe": 85,
  "latitud": -31.4411018,
  "longitud": -64.1257463,
  "ciudad": "Chamical"
}, {
  "id": 2,
  "fecha": "1/8/2020",
  "importe": 10,
  "latitud": 53.3797233,
  "longitud": 49.5564219,
  "ciudad": "Zhigulevsk"
}, {
  "id": 3,
  "fecha": "3/2/2020",
  "importe": 54,
  "latitud": -14.4861733,
  "longitud": 35.253304,
  "ciudad": "Mangochi"
}, {
  "id": 4,
  "fecha": "5/10/2020",
  "importe": 85,
  "latitud": 29.8637597,
  "longitud": 121.5936562,
  "ciudad": "Linshe"
}, {
  "id": 5,
  "fecha": "3/7/2020",
  "importe": 8,
  "latitud": 40.81609,
  "longitud": 140.37539,
  "ciudad": "Shimokizukuri"
}, {
  "id": 6,
  "fecha": "5/12/2020",
  "importe": 87,
  "latitud": 46.068811,
  "longitud": 6.568907,
  "ciudad": "Cluses"
}, {
  "id": 7,
  "fecha": "6/30/2019",
  "importe": 90,
  "latitud": 31.528572,
  "longitud": 114.367092,
  "ciudad": "Pengdian"
}, {
  "id": 8,
  "fecha": "2/9/2020",
  "importe": 87,
  "latitud": 17.2004826,
  "longitud": -25.0925624,
  "ciudad": "Ponta do Sol"
}, {
  "id": 9,
  "fecha": "11/7/2019",
  "importe": 57,
  "latitud": 13.4354977,
  "longitud": 121.8184253,
  "ciudad": "Laylay"
}, {
  "id": 10,
  "fecha": "5/24/2020",
  "importe": 33,
  "latitud": 36.60123,
  "longitud": 126.6607764,
  "ciudad": "Hongsung"
}]
